{
  "personal": {
    "name": "Michael Jackson",
    "jobtitle": "Singer, Songwriter, Record Producer, Dancer, and Actor.",
    "location": {
      "city": "Los Angeles", 
      "country": "USA"},
    "picture": "https://scontent.cdninstagram.com/t51.2885-19/s150x150/11881796_768311776612351_1578841638_a.jpg",
    "bio": "While still singing with the Jackson 5, I had a number of solo albums. At first my solo career didn't take off, but I did have a few hit songs including \"Ben\" and \"Got to Be There.\" However, in 1978 I met music producer Quincy Jones while working on the set of the movie The Wiz. Broke away from the family band and worked on my first \"grown up\" album. In 1979, I released the album Off the Wall. It was a huge hit and had four top ten songs including the number one singles \"Rock with You\" and \"Don't Stop 'til You Get Enough.\" "   
  },
  "exp": [
    { "title": "Singer @ Jackson 5",
      "start": "03/1968", 
      "end": "10/1975", 
      "desc": "sharing lead vocals with my older brother Jermaine, also performed at clubs and cocktail lounges, where striptease shows and other adult acts were featured, and at local auditoriums and high school dances."
    },
    { "title": "Solo Singer @ World, Inc",
      "start": "11/1957", 
      "end": "till dead", 
      "desc": "My contributions to music, dance and fashion along with his publicized personal life made him a global figure in popular culture for over four decades."
    }
  ],
  "edu": [
    { "title": "Kindergarten",
      "start": "03/1962", 
      "end": "10/1965", 
      "desc": "Garrett Elementary kindergarten "
    },
    { "title": "Singer & Dancer",
      "start": "11/1968", 
      "end": "till dead", 
      "desc": "Jackson 5"
    }
  ],
  "details": {
    "birthday": "29/08/1958",
    "adress": "420 High Street",
    "adress2": "#1115, California",
    "phone": "+55-555-555",
    "email": "michael@jackson.com"
  },
  "lang": [
    {"name": "Pop Music", "level": 100}, 
    {"name": "English", "level": 90}, 
    {"name": "Spanish", "level": 50}, 
    {"name": "Japanese", "level": 20}
  ],
  "skills": [
    {"name": "Sing", "level": 90}, 
    {"name": "Dance", "level": 100}, 
    {"name": "Compose", "level": 70}, 
    {"name": "Make Up", "level": 20}
  ],
  "links": [
    {"link": "https://www.facebook.com/michaeljackson/", "icon": "fa-facebook-square"}, 
    {"link": "https://twitter.com/michaeljackson", "icon": "fa-twitter-square"}, 
    {"link": "https://www.linkedin.com/in/michaeljackson", "icon": "fa-linkedin-square"}
  ]
}